{
    "version":2,
    "builds": [
        {
            "src": "index.js",
            "use": "@vercel/node"
        }
    ],    
    "routes": [
        {
            "src": "/apiitem/.*",
            "dest":"index.js"
        }
    ],
    "env":{
        "mongodbrurl": "mongodb+srv://karoldayanacampoqu:karol12@cluster0.pucwum5.mongodb.net/bdItem"
    }
}